<?xml version="1.0" encoding="UTF-8" standalone="no"?>
<!-- Created with Inkscape (http://www.inkscape.org/) -->

<svg
   xmlns:dc="http://purl.org/dc/elements/1.1/"
   xmlns:cc="http://creativecommons.org/ns#"
   xmlns:rdf="http://www.w3.org/1999/02/22-rdf-syntax-ns#"
   xmlns:svg="http://www.w3.org/2000/svg"
   xmlns="http://www.w3.org/2000/svg"
   xmlns:sodipodi="http://sodipodi.sourceforge.net/DTD/sodipodi-0.dtd"
   xmlns:inkscape="http://www.inkscape.org/namespaces/inkscape"
   width="48"
   height="48"
   viewBox="0 0 48 48"
   id="svg2"
   version="1.1"
   inkscape:version="0.91 r13725"
   sodipodi:docname="ic_launcher.svg">
  <defs
     id="defs4" />
  <sodipodi:namedview
     id="base"
     pagecolor="#ffffff"
     bordercolor="#666666"
     borderopacity="1.0"
     inkscape:pageopacity="0.0"
     inkscape:pageshadow="2"
     inkscape:zoom="16.666667"
     inkscape:cx="8.0700003"
     inkscape:cy="24"
     inkscape:document-units="px"
     inkscape:current-layer="layer1"
     showgrid="true"
     units="px"
     showguides="true"
     inkscape:guide-bbox="true"
     inkscape:window-width="1920"
     inkscape:window-height="1006"
     inkscape:window-x="0"
     inkscape:window-y="24"
     inkscape:window-maximized="1"
     inkscape:object-paths="true"
     inkscape:snap-bbox="true"
     inkscape:bbox-paths="true"
     inkscape:bbox-nodes="true"
     inkscape:object-nodes="false"
     inkscape:snap-smooth-nodes="true"
     inkscape:snap-nodes="true"
     inkscape:snap-object-midpoints="true">
    <inkscape:grid
       type="xygrid"
       id="grid4136"
       spacingx="1"
       spacingy="1"
       empspacing="8" />
    <sodipodi:guide
       position="8,0"
       orientation="1,0"
       id="guide4138"
       inkscape:label=""
       inkscape:color="rgb(0,0,255)" />
    <sodipodi:guide
       position="40,0"
       orientation="1,0"
       id="guide4140"
       inkscape:label=""
       inkscape:color="rgb(0,0,255)" />
    <sodipodi:guide
       position="17,0"
       orientation="1,0"
       id="guide4142"
       inkscape:label=""
       inkscape:color="rgb(0,0,255)" />
    <sodipodi:guide
       position="31,0"
       orientation="1,0"
       id="guide4144"
       inkscape:label=""
       inkscape:color="rgb(0,0,255)" />
    <sodipodi:guide
       position="24,0"
       orientation="1,0"
       id="guide4146"
       inkscape:label=""
       inkscape:color="rgb(0,0,255)" />
    <sodipodi:guide
       position="0,8"
       orientation="0,1"
       id="guide4148"
       inkscape:label=""
       inkscape:color="rgb(0,0,255)" />
    <sodipodi:guide
       position="0,40"
       orientation="0,1"
       id="guide4150"
       inkscape:label=""
       inkscape:color="rgb(0,0,255)" />
    <sodipodi:guide
       position="0,31"
       orientation="0,1"
       id="guide4152"
       inkscape:label=""
       inkscape:color="rgb(0,0,255)" />
    <sodipodi:guide
       position="0,17"
       orientation="0,1"
       id="guide4154"
       inkscape:label=""
       inkscape:color="rgb(0,0,255)" />
    <sodipodi:guide
       position="0,24"
       orientation="0,1"
       id="guide4156"
       inkscape:label=""
       inkscape:color="rgb(0,0,255)" />
    <sodipodi:guide
       position="0,0"
       orientation="-0.70710678,0.70710678"
       id="guide4158"
       inkscape:label=""
       inkscape:color="rgb(0,0,255)" />
    <sodipodi:guide
       position="0,48"
       orientation="0.70710678,0.70710678"
       id="guide4160"
       inkscape:label=""
       inkscape:color="rgb(0,0,255)" />
  </sodipodi:namedview>
  <metadata
     id="metadata7">
    <rdf:RDF>
      <cc:Work
         rdf:about="">
        <dc:format>image/svg+xml</dc:format>
        <dc:type
           rdf:resource="http://purl.org/dc/dcmitype/StillImage" />
        <dc:title />
      </cc:Work>
    </rdf:RDF>
  </metadata>
  <g
     inkscape:label="Layer 1"
     inkscape:groupmode="layer"
     id="layer1"
     transform="translate(0,-1004.3622)">
    <circle
       style="opacity:1;fill:#ffeb3b;fill-opacity:1;stroke:none;stroke-width:8;stroke-miterlimit:4;stroke-dasharray:none;stroke-dashoffset:0;stroke-opacity:1"
       id="path5338"
       cx="24"
       cy="1028.3622"
       r="17" />
    <g
       id="g5301-4"
       transform="matrix(0.25,0,0,0.25,4,784.27165)">
      <path
         inkscape:connector-curvature="0"
         id="path5299-7"
         d="m 74,920.36216 c -4.32991,0 -8.090937,2.79107 -9.458984,6.72851 L 56,951.68833 l 0,32.67383 c 0,4.38181 3.618182,8 8,8 l 4,0 c 4.382162,0 8,-3.64243 8,-8 l 40,0 c 0,4.3818 3.61818,8 8,8 l 4,0 c 4.38216,0 8,-3.64243 8,-8 l 0,-32.67383 -6.69531,-19.28516 -1.84571,-5.3125 c -1.36805,-3.93743 -5.12907,-6.72851 -9.45898,-6.72851 l -44,0 z"
         style="color:#000000;font-style:normal;font-variant:normal;font-weight:normal;font-stretch:normal;font-size:medium;line-height:normal;font-family:sans-serif;text-indent:0;text-align:start;text-decoration:none;text-decoration-line:none;text-decoration-style:solid;text-decoration-color:#000000;letter-spacing:normal;word-spacing:normal;text-transform:none;direction:ltr;block-progression:tb;writing-mode:lr-tb;baseline-shift:baseline;text-anchor:start;white-space:normal;clip-rule:nonzero;display:inline;overflow:visible;visibility:visible;opacity:1;isolation:auto;mix-blend-mode:normal;color-interpolation:sRGB;color-interpolation-filters:linearRGB;solid-color:#000000;solid-opacity:1;fill:#ffeb3b;fill-opacity:1;fill-rule:nonzero;stroke:none;stroke-width:8;stroke-linecap:butt;stroke-linejoin:miter;stroke-miterlimit:4;stroke-dasharray:none;stroke-dashoffset:0;stroke-opacity:1;color-rendering:auto;image-rendering:auto;shape-rendering:auto;text-rendering:auto;enable-background:accumulate" />
      <path
         style="stroke:none"
         id="path4-2-7"
         d="m 123.67988,928.4022 c -0.82,-2.36007 -3.05999,-4.04006 -5.67997,-4.04006 l -43.999816,0 c -2.619989,0 -4.859979,1.67999 -5.679975,4.04006 l -8.319964,23.96014 0,31.99984 c 0,2.2 1.799992,4 3.999983,4 l 3.999982,0 c 2.21999,0 3.999983,-1.8 3.999983,-4 l 0,-4 47.999797,0 0,4 c 0,2.2 1.79999,4 3.99998,4 l 3.99997,0 c 2.21999,0 3.99999,-1.8 3.99999,-4 l 0,-31.99984 -8.31997,-23.96014 z m -49.679786,39.96008 c -3.319986,0 -5.999974,-2.68 -5.999974,-5.99999 0,-3.31998 2.679988,-5.99997 5.999974,-5.99997 3.319981,0 5.999971,2.67999 5.999971,5.99997 0,3.31999 -2.67999,5.99999 -5.999971,5.99999 z m 43.999816,0 c -3.31999,0 -5.99998,-2.68 -5.99998,-5.99999 0,-3.31998 2.67999,-5.99997 5.99998,-5.99997 3.31998,0 5.99997,2.67999 5.99997,5.99997 0,3.31999 -2.67999,5.99999 -5.99997,5.99999 z m -49.99979,-19.99993 5.999974,-18.00016 43.999816,0 5.99997,18.00016 -55.99976,0 z"
         inkscape:connector-curvature="0" />
    </g>
    <g
       id="g5301"
       transform="matrix(0.25,0,0,0.25,-3,793.27165)">
      <path
         inkscape:connector-curvature="0"
         id="path5299"
         d="m 74,920.36216 c -4.32991,0 -8.090937,2.79107 -9.458984,6.72851 L 56,951.68833 l 0,32.67383 c 0,4.38181 3.618182,8 8,8 l 4,0 c 4.382162,0 8,-3.64243 8,-8 l 40,0 c 0,4.3818 3.61818,8 8,8 l 4,0 c 4.38216,0 8,-3.64243 8,-8 l 0,-32.67383 -6.69531,-19.28516 -1.84571,-5.3125 c -1.36805,-3.93743 -5.12907,-6.72851 -9.45898,-6.72851 l -44,0 z"
         style="color:#000000;font-style:normal;font-variant:normal;font-weight:normal;font-stretch:normal;font-size:medium;line-height:normal;font-family:sans-serif;text-indent:0;text-align:start;text-decoration:none;text-decoration-line:none;text-decoration-style:solid;text-decoration-color:#000000;letter-spacing:normal;word-spacing:normal;text-transform:none;direction:ltr;block-progression:tb;writing-mode:lr-tb;baseline-shift:baseline;text-anchor:start;white-space:normal;clip-rule:nonzero;display:inline;overflow:visible;visibility:visible;opacity:1;isolation:auto;mix-blend-mode:normal;color-interpolation:sRGB;color-interpolation-filters:linearRGB;solid-color:#000000;solid-opacity:1;fill:#ffeb3b;fill-opacity:1;fill-rule:nonzero;stroke:none;stroke-width:8;stroke-linecap:butt;stroke-linejoin:miter;stroke-miterlimit:4;stroke-dasharray:none;stroke-dashoffset:0;stroke-opacity:1;color-rendering:auto;image-rendering:auto;shape-rendering:auto;text-rendering:auto;enable-background:accumulate" />
      <path
         style="stroke:none"
         id="path4-2"
         d="m 123.67988,928.4022 c -0.82,-2.36007 -3.05999,-4.04006 -5.67997,-4.04006 l -43.999816,0 c -2.619989,0 -4.859979,1.67999 -5.679975,4.04006 l -8.319964,23.96014 0,31.99984 c 0,2.2 1.799992,4 3.999983,4 l 3.999982,0 c 2.21999,0 3.999983,-1.8 3.999983,-4 l 0,-4 47.999797,0 0,4 c 0,2.2 1.79999,4 3.99998,4 l 3.99997,0 c 2.21999,0 3.99999,-1.8 3.99999,-4 l 0,-31.99984 -8.31997,-23.96014 z m -49.679786,39.96008 c -3.319986,0 -5.999974,-2.68 -5.999974,-5.99999 0,-3.31998 2.679988,-5.99997 5.999974,-5.99997 3.319981,0 5.999971,2.67999 5.999971,5.99997 0,3.31999 -2.67999,5.99999 -5.999971,5.99999 z m 43.999816,0 c -3.31999,0 -5.99998,-2.68 -5.99998,-5.99999 0,-3.31998 2.67999,-5.99997 5.99998,-5.99997 3.31998,0 5.99997,2.67999 5.99997,5.99997 0,3.31999 -2.67999,5.99999 -5.99997,5.99999 z m -49.99979,-19.99993 5.999974,-18.00016 43.999816,0 5.99997,18.00016 -55.99976,0 z"
         inkscape:connector-curvature="0" />
    </g>
    <path
       inkscape:connector-curvature="0"
       style="opacity:1;fill:#f44336;fill-opacity:1;stroke:none;stroke-width:0.2;stroke-miterlimit:4;stroke-dasharray:none;stroke-dashoffset:0;stroke-opacity:1"
       d="m 24,1006.3622 a 22,22 0 0 0 -22,22 22,22 0 0 0 22,22 22,22 0 0 0 22,-22 22,22 0 0 0 -22,-22 z m 0,5 a 17,17 0 0 1 17,17 17,17 0 0 1 -17,17 17,17 0 0 1 -17,-17 17,17 0 0 1 17,-17 z"
       id="path5195" />
    <path
       style="fill:#f44336;fill-opacity:1;fill-rule:evenodd;stroke:none;stroke-width:0.2;stroke-linecap:butt;stroke-linejoin:miter;stroke-miterlimit:4;stroke-dasharray:none;stroke-opacity:1"
       d="m 12,1016.3622 -6,0 34,34 6,0 z"
       id="path5240"
       inkscape:connector-curvature="0" />
  </g>
</svg>
